{
    "$schema": "https://go.kicad.org/pcm/schemas/v1",
    "name": "Oktizer Action Plugin",
    "description": "Plugin to modify boards to have octagonal looking pads and vias.",
    "description_full": "Creates octagonal filleted pads and vias by modifying them and/or adding zones, similar to how teardrops work. The PCB needs to be prepared first with\nTools → Cleanup Tracks &amp; Vias… → ☒ Merge co-linear tracks\nClicking the Oktizer tool button or choosing\nTools → External Plugins… → Oktizer\nmodifies the selected pads and vias, or all round and rectangular PTH pads and vias if there is no selection.",
    "identifier": "com.gitlab.franzee.kicad-addons.oktizer",
    "type": "plugin",
    "author": {
        "name": "franzee",
        "contact": {
        }
    },
    "license": "CC0-1.0",
    "resources": {
        "Repository": "https://gitlab.com/franzee/kicad-addons/"
    },
    "tags": [
        "octagon",
        "action",
        "plugin",
        "python",
        "pcb",
        "pcbnew",
        "elektuur",
        "elektor"
    ],
    "versions": [
        {
            "version": "0.0.9",
            "status": "stable",
            "kicad_version": "5.1",
            "download_sha256": "fad7fbcaa7ef86943f87da6ce33a241915b8eb80e69e0a8c812d48ed3277746a",
            "download_size": 8081,
            "install_size": 24099,
            "download_url": "https://gitlab.com/franzee/kicad-addons/-/raw/main/kicad-oktizer-0.0.9.zip"
        }
    ]
}
